%!PS
% The Computer Language Benchmarks Game
% http://shootout.alioth.debian.org/
%
% contributed by Jeff Zaroyko

/f (sumcol-input.txt) (r) file def
{
    f token false eq
	{
	    exit
	} if
} loop

count 1 sub { add } repeat
==
quit